{
  "name": "11ty Base Project",
  "short_name": "11ty",
  "lang": "es",
  "allLangs": ["es", "en"],
  "dir": "ltr",
  "url": "https://example.com",
  "authorName": "Base Author",
  "authorEmail": "hi@example.com",
  "authorHandle": "",
  "authorMastodon": "",
  "siteHandle": "",
  "pwa": {
    "version": 1,
    "theme_color": "#333333",
    "background_color": "#333333",
    "description": "Description of the PWA",
    "categories": [
      "books",
      "business",
      "education",
      "entertainment",
      "finance",
      "fitness",
      "food",
      "games",
      "government",
      "health",
      "kids",
      "lifestyle",
      "magazines",
      "medical",
      "music",
      "navigation",
      "news",
      "personalization",
      "photo",
      "politics",
      "productivity",
      "security",
      "shopping",
      "social",
      "sports",
      "travel",
      "utilities",
      "weather"
    ]
  },
  "paymentPointer": ""
}
